%YAML 1.1
%TAG !u! tag:unity3d.com,2011:
--- !u!1 &100000
GameObject:
  m_ObjectHideFlags: 0
  m_PrefabParentObject: {fileID: 0}
  m_PrefabInternal: {fileID: 100100000}
  serializedVersion: 4
  m_Component:
  - 4: {fileID: 400000}
  - 114: {fileID: 11400000}
  m_Layer: 0
  m_Name: ChrBrad_ChrBillFord_Idle01_ReachNearCornerLf01
  m_TagString: Untagged
  m_Icon: {fileID: 0}
  m_NavMeshLayer: 0
  m_StaticEditorFlags: 0
  m_IsActive: 1
--- !u!4 &400000
Transform:
  m_ObjectHideFlags: 1
  m_PrefabParentObject: {fileID: 0}
  m_PrefabInternal: {fileID: 100100000}
  m_GameObject: {fileID: 100000}
  m_LocalRotation: {x: 0, y: 0, z: 0, w: 1}
  m_LocalPosition: {x: 0, y: 0, z: 0}
  m_LocalScale: {x: 1, y: 1, z: 1}
  m_Children: []
  m_Father: {fileID: 0}
  m_RootOrder: 0
--- !u!114 &11400000
MonoBehaviour:
  m_ObjectHideFlags: 1
  m_PrefabParentObject: {fileID: 0}
  m_PrefabInternal: {fileID: 100100000}
  m_GameObject: {fileID: 100000}
  m_Enabled: 1
  m_EditorHideFlags: 0
  m_Script: {fileID: 11500000, guid: 4b50688e7983bec45a8f65c2481b3f50, type: 3}
  m_Name: 
  m_EditorClassIdentifier: 
  m_MotionData:
    m_Channels:
    - base XPos
    - base YPos
    - base ZPos
    - base Quat
    - l_hip XPos
    - l_hip YPos
    - l_hip ZPos
    - l_hip Quat
    - l_knee XPos
    - l_knee YPos
    - l_knee ZPos
    - l_knee Quat
    - l_ankle XPos
    - l_ankle YPos
    - l_ankle ZPos
    - l_ankle Quat
    - l_forefoot XPos
    - l_forefoot YPos
    - l_forefoot ZPos
    - l_forefoot Quat
    - l_toe XPos
    - l_toe YPos
    - l_toe ZPos
    - l_toe Quat
    - r_hip XPos
    - r_hip YPos
    - r_hip ZPos
    - r_hip Quat
    - r_knee XPos
    - r_knee YPos
    - r_knee ZPos
    - r_knee Quat
    - r_ankle XPos
    - r_ankle YPos
    - r_ankle ZPos
    - r_ankle Quat
    - r_forefoot XPos
    - r_forefoot YPos
    - r_forefoot ZPos
    - r_forefoot Quat
    - r_toe XPos
    - r_toe YPos
    - r_toe ZPos
    - r_toe Quat
    - spine1 XPos
    - spine1 YPos
    - spine1 ZPos
    - spine1 Quat
    - spine2 XPos
    - spine2 YPos
    - spine2 ZPos
    - spine2 Quat
    - spine3 XPos
    - spine3 YPos
    - spine3 ZPos
    - spine3 Quat
    - spine4 XPos
    - spine4 YPos
    - spine4 ZPos
    - spine4 Quat
    - spine5 XPos
    - spine5 YPos
    - spine5 ZPos
    - spine5 Quat
    - skullbase XPos
    - skullbase YPos
    - skullbase ZPos
    - skullbase Quat
    - Jaw XPos
    - Jaw YPos
    - Jaw ZPos
    - Jaw Quat
    - l_sternoclavicular XPos
    - l_sternoclavicular YPos
    - l_sternoclavicular ZPos
    - l_sternoclavicular Quat
    - l_acromioclavicular XPos
    - l_acromioclavicular YPos
    - l_acromioclavicular ZPos
    - l_acromioclavicular Quat
    - l_shoulder XPos
    - l_shoulder YPos
    - l_shoulder ZPos
    - l_shoulder Quat
    - l_elbow XPos
    - l_elbow YPos
    - l_elbow ZPos
    - l_elbow Quat
    - l_forearm XPos
    - l_forearm YPos
    - l_forearm ZPos
    - l_forearm Quat
    - l_wrist XPos
    - l_wrist YPos
    - l_wrist ZPos
    - l_wrist Quat
    - l_thumb1 XPos
    - l_thumb1 YPos
    - l_thumb1 ZPos
    - l_thumb1 Quat
    - l_thumb2 XPos
    - l_thumb2 YPos
    - l_thumb2 ZPos
    - l_thumb2 Quat
    - l_thumb3 XPos
    - l_thumb3 YPos
    - l_thumb3 ZPos
    - l_thumb3 Quat
    - l_thumb4 XPos
    - l_thumb4 YPos
    - l_thumb4 ZPos
    - l_thumb4 Quat
    - l_index1 XPos
    - l_index1 YPos
    - l_index1 ZPos
    - l_index1 Quat
    - l_index2 XPos
    - l_index2 YPos
    - l_index2 ZPos
    - l_index2 Quat
    - l_index3 XPos
    - l_index3 YPos
    - l_index3 ZPos
    - l_index3 Quat
    - l_index4 XPos
    - l_index4 YPos
    - l_index4 ZPos
    - l_index4 Quat
    - l_middle1 XPos
    - l_middle1 YPos
    - l_middle1 ZPos
    - l_middle1 Quat
    - l_middle2 XPos
    - l_middle2 YPos
    - l_middle2 ZPos
    - l_middle2 Quat
    - l_middle3 XPos
    - l_middle3 YPos
    - l_middle3 ZPos
    - l_middle3 Quat
    - l_middle4 XPos
    - l_middle4 YPos
    - l_middle4 ZPos
    - l_middle4 Quat
    - l_ring1 XPos
    - l_ring1 YPos
    - l_ring1 ZPos
    - l_ring1 Quat
    - l_ring2 XPos
    - l_ring2 YPos
    - l_ring2 ZPos
    - l_ring2 Quat
    - l_ring3 XPos
    - l_ring3 YPos
    - l_ring3 ZPos
    - l_ring3 Quat
    - l_ring4 XPos
    - l_ring4 YPos
    - l_ring4 ZPos
    - l_ring4 Quat
    - l_pinky1 XPos
    - l_pinky1 YPos
    - l_pinky1 ZPos
    - l_pinky1 Quat
    - l_pinky2 XPos
    - l_pinky2 YPos
    - l_pinky2 ZPos
    - l_pinky2 Quat
    - l_pinky3 XPos
    - l_pinky3 YPos
    - l_pinky3 ZPos
    - l_pinky3 Quat
    - l_pinky4 XPos
    - l_pinky4 YPos
    - l_pinky4 ZPos
    - l_pinky4 Quat
    - r_sternoclavicular XPos
    - r_sternoclavicular YPos
    - r_sternoclavicular ZPos
    - r_sternoclavicular Quat
    - r_acromioclavicular XPos
    - r_acromioclavicular YPos
    - r_acromioclavicular ZPos
    - r_acromioclavicular Quat
    - r_shoulder XPos
    - r_shoulder YPos
    - r_shoulder ZPos
    - r_shoulder Quat
    - r_elbow XPos
    - r_elbow YPos
    - r_elbow ZPos
    - r_elbow Quat
    - r_forearm XPos
    - r_forearm YPos
    - r_forearm ZPos
    - r_forearm Quat
    - r_wrist XPos
    - r_wrist YPos
    - r_wrist ZPos
    - r_wrist Quat
    - r_thumb1 XPos
    - r_thumb1 YPos
    - r_thumb1 ZPos
    - r_thumb1 Quat
    - r_thumb2 XPos
    - r_thumb2 YPos
    - r_thumb2 ZPos
    - r_thumb2 Quat
    - r_thumb3 XPos
    - r_thumb3 YPos
    - r_thumb3 ZPos
    - r_thumb3 Quat
    - r_thumb4 XPos
    - r_thumb4 YPos
    - r_thumb4 ZPos
    - r_thumb4 Quat
    - r_index1 XPos
    - r_index1 YPos
    - r_index1 ZPos
    - r_index1 Quat
    - r_index2 XPos
    - r_index2 YPos
    - r_index2 ZPos
    - r_index2 Quat
    - r_index3 XPos
    - r_index3 YPos
    - r_index3 ZPos
    - r_index3 Quat
    - r_index4 XPos
    - r_index4 YPos
    - r_index4 ZPos
    - r_index4 Quat
    - r_middle1 XPos
    - r_middle1 YPos
    - r_middle1 ZPos
    - r_middle1 Quat
    - r_middle2 XPos
    - r_middle2 YPos
    - r_middle2 ZPos
    - r_middle2 Quat
    - r_middle3 XPos
    - r_middle3 YPos
    - r_middle3 ZPos
    - r_middle3 Quat
    - r_middle4 XPos
    - r_middle4 YPos
    - r_middle4 ZPos
    - r_middle4 Quat
    - r_ring1 XPos
    - r_ring1 YPos
    - r_ring1 ZPos
    - r_ring1 Quat
    - r_ring2 XPos
    - r_ring2 YPos
    - r_ring2 ZPos
    - r_ring2 Quat
    - r_ring3 XPos
    - r_ring3 YPos
    - r_ring3 ZPos
    - r_ring3 Quat
    - r_ring4 XPos
    - r_ring4 YPos
    - r_ring4 ZPos
    - r_ring4 Quat
    - r_pinky1 XPos
    - r_pinky1 YPos
    - r_pinky1 ZPos
    - r_pinky1 Quat
    - r_pinky2 XPos
    - r_pinky2 YPos
    - r_pinky2 ZPos
    - r_pinky2 Quat
    - r_pinky3 XPos
    - r_pinky3 YPos
    - r_pinky3 ZPos
    - r_pinky3 Quat
    - r_pinky4 XPos
    - r_pinky4 YPos
    - r_pinky4 ZPos
    - r_pinky4 Quat
    m_NumFrames: 53
    m_SyncPoints:
    - m_Name: strokeStartTime
      m_Time: .466666996
    - m_Name: emphasisTime
      m_Time: .833333015
    - m_Name: strokeTime
      m_Time: 1.13332999
    - m_Name: relaxTime
      m_Time: 1.56666994
    - m_Name: start
      m_Time: 0
    - m_Name: stop
      m_Time: 1.73333001
  m_MotionFinishedLoadingReceiver: {fileID: 0}
  m_MotionFinishedLoadingCallback: 
  m_LogLoadingTime: 0
  m_FrameData: {fileID: 4900000, guid: f30788a770237b9499617199e5986cb7, type: 3}
  m_SaveAsSkm: 0
--- !u!1001 &100100000
Prefab:
  m_ObjectHideFlags: 1
  serializedVersion: 2
  m_Modification:
    m_TransformParent: {fileID: 0}
    m_Modifications: []
    m_RemovedComponents: []
  m_ParentPrefab: {fileID: 0}
  m_RootGameObject: {fileID: 100000}
  m_IsPrefabParent: 1
  m_IsExploded: 1
