%YAML 1.1
%TAG !u! tag:unity3d.com,2011:
--- !u!1045 &1
EditorBuildSettings:
  m_ObjectHideFlags: 0
  serializedVersion: 2
  m_Scenes:
  - enabled: 1
    path: Assets/Scenes/StartMenu.unity
  - enabled: 1
    path: Assets/Scenes/Intro.unity
  - enabled: 1
    path: Assets/Scenes/Temple.unity
  - enabled: 1
    path: Assets/Scenes/DijkstraIntro.unity
  - enabled: 1
    path: Assets/Scenes/Eulerian Circuit.unity
  - enabled: 0
    path: Assets/Scenes/ui dijkstra.unity
  - enabled: 1
    path: Assets/Scenes/DijkstraOutro.unity
